^D:\MBF SECRET DOCUMENTS\ZTU\1 КУРС\АТАТАТАТАТАТА\LAB1\TASK2_1\TASK2_1.CPP
D:\MBF SECRET DOCUMENTS\ZTU\1 курс\атататататата\LAB1\TASK2_1\X64\DEBUG\VC143.PDB
D:\MBF SECRET DOCUMENTS\ZTU\1 курс\атататататата\LAB1\TASK2_1\X64\DEBUG\VC143.IDB
D:\MBF SECRET DOCUMENTS\ZTU\1 курс\атататататата\LAB1\TASK2_1\X64\DEBUG\TASK2_1.OBJ
