^D:\MBF SECRET DOCUMENTS\ZTU\1 КУРС\АТАТАТАТАТАТА\LAB1\TASK2\X64\DEBUG\TASK2.OBJ
D:\MBF SECRET DOCUMENTS\ZTU\1 курс\атататататата\LAB1\X64\DEBUG\TASK2.EXE
D:\MBF SECRET DOCUMENTS\ZTU\1 курс\атататататата\LAB1\TASK2\X64\DEBUG\TASK2.ILK
D:\MBF SECRET DOCUMENTS\ZTU\1 курс\атататататата\LAB1\X64\DEBUG\TASK2.PDB
