^D:\MBF SECRET DOCUMENTS\ZTU\1 КУРС\АТАТАТАТАТАТА\LAB1\TASK1\TASK1.CPP
D:\MBF SECRET DOCUMENTS\ZTU\1 курс\атататататата\LAB1\TASK1\X64\DEBUG\VC143.PDB
D:\MBF SECRET DOCUMENTS\ZTU\1 курс\атататататата\LAB1\TASK1\X64\DEBUG\VC143.IDB
D:\MBF SECRET DOCUMENTS\ZTU\1 курс\атататататата\LAB1\TASK1\X64\DEBUG\TASK1.OBJ
